{
    "fileTypes": [
        "d3et"
    ],
    "foldingStartMarker": "\\{\\s*$",
    "foldingStopMarker": "^\\s*\\}",
    "name": "D3ET",
    "patterns": [
        {
            "include": "#comments"
        },
        {
            "include": "#d3et-package"
        },
        {
            "include": "#d3et-import"
        },
        {
            "include": "#annotations"
        },
        {
            "include": "#d3et-declaration"
        },
        {
            "include": "#annotations"
        }
    ],
    "repository": {
        "d3et-package": {
            "patterns": [
                {
                    "name": "d3et-package.d3et",
                    "match": "(package).*?\n",
                    "captures": {
                        "1": {
                            "name": "keyword.control.d3et"
                        }
                    }
                }
            ]
        },
        "d3et-import": {
            "patterns": [
                {
                    "name": "d3et-import.d3et",
                    "match": "(import)\\s+([a-zA-Z0-9.]+) (.*?)\n",
                    "captures": {
                        "1": {
                            "name": "keyword.control.d3et"
                        },
                        "3": {
                            "patterns":[
                                {
                                    "include": "#d3et-import-var"
                                }
                            ]
                        }
                    }
                }
            ]
        },
        "d3et-import-var": {
            "patterns": [
                {
                    "name": "d3et-import.d3et",
                    "match": "(as)\\s+([a-zA-Z-0-9]+)",
                    "captures": {
                        "1": {
                            "name": "keyword.control.d3et"
                        },
                        "2": {
                            "name": "support.variable.d3et"
                        }
                    }
                }
            ]
        },
        "d3et-declaration": {                   
            "patterns": [
                {
                    "name": "d3et-declaration.d3et",
                    "begin": "(abstract)?\\s*(class)\\s*([A-Za-z0-9]+)(.*?)((extends)(.*?))?\\s*((implements)(.*?))?\\s*{",
                    "captures": {
                        "1": {
                            "name": "keyword.declaration.d3et"
                        },
                        "3": {
                            "patterns":[
                                {
                                    "include": "#d3et-generics"
                                }
                            ]
                        },
                        "5": {
                            "name": "keyword.declaration.d3et"
                        },
                        "6": {
                            "patterns":[
                                {
                                    "include": "#d3et-type"
                                }
                            ]
                        },
                        "8": {
                            "name": "keyword.declaration.d3et"
                        },                       
                        "9": {
                            "patterns":[
                                {
                                    "include": "#d3et-type"
                                }
                            ]
                        }
                    },
                    "patterns":[
                        {
                            "include": "#d3et-type-member"
                        }
                    ],
                    "end": "\\s*}\n"
                }
            ]
        },
        "d3et-generics": {
            "patterns": [
                {
                    "name": "d3et-generics.d3et",
                    "match": "<(.*?)>",
                    "captures": {
                        "1": {
                            "patterns":[
                                {
                                    "include": "#d3et-generic-param"
                                }
                            ]
                        }
                    }
                }
            ]
        },
        "d3et-generic-param": {
            "patterns": [
                {
                    "name": "d3et-generic.d3et",
                    "match": "([A-Za-z0-9]+)\\s*((\\:)\\s*([A-Za-z0-9]+))?",
                    "captures": {
                        "1": {
                            "name": "support.variable.d3et"
                        },
                        "4": {
                            "patterns":[
                                {
                                    "include": "#d3et-type"
                                }
                            ]
                        }
                    }
                }
            ]
        },
        "d3et-type":{
            "patterns": [
                {
                    "name": "d3et-type.d3et",
                    "match": "([A-Za-z0-9]+)\\s*(<(.*?)>)?",
                    "captures": {
                        "1": {
                            "name": "support.class.d3et"
                        },
                        "3": {
                            "patterns":[
                                {
                                    "include": "#d3et-type"
                                }
                            ]
                        }
                    }
                }
            ]
        },
        "d3et-type-member": {
            "name": "d3et-type-members.d3et",
            "patterns": [             
                {
                    "include": "#d3et-constructor"
                },
                {
                    "include": "#d3et-method"
                },
                {
                    "include": "#d3et-field"
                },
                {
                    "include": "#comments"
                }
            ]
        },
        "d3et-field":{
            "patterns": [
                {
                    "name": "d3et-field.d3et",
                    "match": "([a-zA-Z0-9]+.*?)\\s+([a-zA-Z0-9]+)",
                    "captures": {                        
                        "1": {
                            "patterns":[
                                {
                                    "include": "#d3et-type"
                                }
                            ]
                        },
                        "2": {
                            "name": "support.variable.d3et"
                        }
                    }
                }
            ]
        },
        "d3et-method":{
            "patterns": [
                {
                    "name": "d3et-method.d3et",
                    "match": "(abstract|static\\s+)?([a-zA-Z0-9]+.*?)\\s+([a-zA-Z0-9]+)(.*?)?\\s*\\((.*?)\\)",
                    "captures": { 
                        "1": {
                            "name": "keyword.declaration.d3et"
                        },                       
                        "2": {
                            "patterns":[
                                {
                                    "include": "#d3et-type"
                                }
                            ]
                        },
                        "3": {
                            "name": "entity.name.function.d3et"
                        },
                        "4": {
                            "patterns":[
                                {
                                    "include": "#d3et-generics"
                                }
                            ]
                        },
                        "5": {
                            "patterns":[
                                {
                                    "include": "#d3et-params"
                                }
                            ]
                        }
                    }
                }
            ]
        },
        "d3et-params":{
            "patterns": [
                {
                    "name": "d3et-params.d3et",
                    "match": "(([a-zA-Z0-9<> ]+)) ([A-Za-z0-9]+\\s*)",
                    "captures": {
                        "1": {
                            "patterns":[
                                {
                                    "include": "#d3et-type"
                                }
                            ]
                        }
                    }
                }
            ]
        },
        "annotations": {
            "patterns": [
                {
                    "match": "@[a-zA-Z0-9]+",
                    "name": "storage.type.annotation.d3e"
                }
            ]
        },
        "comments": {
            "patterns": [
                {
                    "captures": {
                        "0": {
                            "name": "punctuation.definition.comment.d3e"
                        }
                    },
                    "match": "/\\*\\*/",
                    "name": "comment.block.empty.d3e"
                },
                {
                    "include": "#comments-doc-oldschool"
                },
                {
                    "include": "#comments-doc"
                },
                {
                    "include": "#comments-inline"
                }
            ]
        },
        "comments-doc-oldschool": {
            "patterns": [
                {
                    "begin": "/\\*\\*",
                    "end": "\\*/",
                    "name": "comment.block.documentation.d3e",
                    "patterns": [
                        {
                            "include": "#comments-doc-oldschool"
                        },
                        {
                            "include": "#comments-block"
                        },
                        {
                            "include": "#dartdoc"
                        }
                    ]
                }
            ]
        },
        "comments-doc": {
            "patterns": [
                {
                    "begin": "///",
                    "while": "^\\s*///",
                    "patterns": [
                        {
                            "include": "#dartdoc"
                        }
                    ],
                    "name": "comment.block.documentation.d3e"
                }
            ]
        },
        "comments-inline": {
            "patterns": [
                {
                    "include": "#comments-block"
                },
                {
                    "captures": {
                        "1": {
                            "name": "comment.line.double-slash.d3e"
                        }
                    },
                    "match": "((//).*)$"
                }
            ]
        },
        "comments-block": {
            "patterns": [
                {
                    "begin": "/\\*",
                    "end": "\\*/",
                    "name": "comment.block.d3e",
                    "patterns": [
                        {
                            "include": "#comments-block"
                        }
                    ]
                }
            ]
        }
    },
    "scopeName": "spec.d3et"
}